[gd_scene load_steps=3 format=2]

[ext_resource path="res://Models/Furniture/kitchenCabinetCornerInner.mesh" type="ArrayMesh" id=1]

[sub_resource type="ConvexPolygonShape" id=1]
points = PoolVector3Array( 0, 0.291016, 0.25, 0, 0.291016, 0.149902, -0.25, 0.291016, 0.25, -0.149902, 0.291016, 0, -0.25, 0.291016, 0, 0, 1.94922, 0.149902, 0, 0.291016, 0.149902, 0, 1.94922, 2.29883, 0, 0.291016, 0.25, 0, 0, 0.25, 0, 0, 2.29883, -2.29883, 0, 0, -2.29883, 1.94922, 0, -2.29883, 0, 2.29883, -2.29883, 1.94922, 2.29883, 0, 0, 2.29883, -2.29883, 0, 2.29883, 0, 1.94922, 2.29883, -2.29883, 1.94922, 2.29883, -2.29883, 0, 0, -0.25, 0, 0, -2.29883, 1.94922, 0, -0.25, 0.291016, 0, -0.149902, 0.291016, 0, -0.149902, 1.94922, 0, -0.25, 0, 0.25, 0, 0, 0.25, -0.25, 0.291016, 0.25, 0, 0.291016, 0.25, -0.25, 0.291016, 0, -0.25, 0, 0, -0.25, 0.291016, 0.25, -0.25, 0, 0.25, 0, 0, 2.29883, 0, 0, 0.25, -2.29883, 0, 2.29883, -0.25, 0, 0.25, -0.25, 0, 0, -2.29883, 0, 0, -0.149902, 0.291016, 0, 0, 0.291016, 0.149902, -0.149902, 1.94922, 0, 0, 1.94922, 0.149902, -2.14844, 2.09961, 2.14844, 0, 2.09961, 2.14844, -2.14844, 2.25, 2.14844, 0, 2.25, 2.14844, 0, 2.09961, 2.14844, -2.14844, 2.09961, 2.14844, 0, 2.09961, 0.0499878, -0.0499878, 2.09961, 0, -2.14844, 2.09961, 0, -0.149902, 1.94922, 0, -2.14844, 2.09961, 0, -2.29883, 1.94922, 0, -2.29883, 2.25, 0, -0.0499878, 1.94922, 0, -2.14844, 2.25, 0, -0.0499878, 2.09961, 0, 0, 2.25, 2.14844, 0, 2.09961, 2.14844, 0, 2.25, 2.29883, 0, 1.94922, 2.29883, 0, 1.94922, 0.149902, 0, 1.94922, 0.0499878, 0, 2.09961, 0.0499878, -2.14844, 2.25, 0, -2.14844, 2.09961, 0, -2.14844, 2.25, 2.14844, -2.14844, 2.09961, 2.14844, -2.29883, 1.94922, 0, -2.29883, 2.25, 0, -2.29883, 1.94922, 2.29883, -2.29883, 2.25, 2.29883, 0, 1.94922, 0.149902, 0, 1.94922, 0.0499878, -0.149902, 1.94922, 0, -0.0499878, 1.94922, 0, -0.0499878, 1.94922, 0, 0, 1.94922, 0.0499878, -0.0499878, 2.09961, 0, 0, 2.09961, 0.0499878, 0, 1.94922, 2.29883, -2.29883, 1.94922, 2.29883, 0, 2.25, 2.29883, -2.29883, 2.25, 2.29883, 0, 2.25, 2.29883, -2.29883, 2.25, 2.29883, 0, 2.25, 2.14844, -2.14844, 2.25, 2.14844, -2.14844, 2.25, 0, -2.29883, 2.25, 0 )

[node name="KitchenCabinet" type="RigidBody"]

[node name="kitchenCabinetCornerInner" type="MeshInstance" parent="."]
transform = Transform( 1, 0, 0, 0, 1, 0, 0, 0, 1, 1.1, -1, -1.1 )
mesh = ExtResource( 1 )
material/0 = null
material/1 = null

[node name="CollisionShape" type="CollisionShape" parent="."]
transform = Transform( 1, 0, 0, 0, 1, 0, 0, 0, 1, 1.1, -1, -1.1 )
shape = SubResource( 1 )
