[gd_scene load_steps=3 format=2]

[ext_resource path="res://Models/Bystanders/Male_LookingUp.mesh" type="ArrayMesh" id=1]
[ext_resource path="res://bystanders/bystander_template.tscn" type="PackedScene" id=2]


[node name="Bystander" instance=ExtResource( 2 )]

[node name="MeshInstance" parent="." index="0"]
mesh = ExtResource( 1 )
