[gd_scene load_steps=3 format=2]

[ext_resource path="res://Models/Architecture/wallWindowSlide.mesh" type="ArrayMesh" id=1]

[sub_resource type="ConcavePolygonShape" id=1]
data = PoolVector3Array( -1.3145, 5.5313, 0.25, -1.3145, 5.5313, 0.3477, -3.6836, 5.5313, 0.25, -3.6836, 5.5313, 0.3477, -3.6836, 5.5313, 0.25, -1.3145, 5.5313, 0.3477, -1.3145, 1.7148, 0.3477, -1.3145, 1.7148, 0.25, -3.6836, 1.7148, 0.3477, -3.6836, 1.7148, 0.25, -3.6836, 1.7148, 0.3477, -1.3145, 1.7148, 0.25, -3.6836, 1.7148, 0.25, -3.6836, 5.5313, 0.25, -3.6836, 1.7148, 0.3477, -3.6836, 5.5313, 0.3477, -3.6836, 1.7148, 0.3477, -3.6836, 5.5313, 0.25, -3.6836, 1.7148, 0.3477, -1.5635, 1.9629, 0.3477, -1.3145, 1.7148, 0.3477, -1.3145, 5.5313, 0.3477, -1.3145, 1.7148, 0.3477, -1.5635, 1.9629, 0.3477, -1.5635, 5.2813, 0.3477, -1.3145, 5.5313, 0.3477, -1.5635, 1.9629, 0.3477, -3.4355, 5.2813, 0.3477, -1.3145, 5.5313, 0.3477, -1.5635, 5.2813, 0.3477, -1.5635, 1.9629, 0.3477, -3.6836, 1.7148, 0.3477, -3.4355, 1.9629, 0.3477, -3.6836, 5.5313, 0.3477, -3.4355, 1.9629, 0.3477, -3.6836, 1.7148, 0.3477, -3.4355, 5.2813, 0.3477, -3.4355, 1.9629, 0.3477, -3.6836, 5.5313, 0.3477, -1.3145, 5.5313, 0.3477, -3.4355, 5.2813, 0.3477, -3.6836, 5.5313, 0.3477, -1.3145, 5.5313, 0.25, -1.3145, 1.7148, 0.25, -1.3145, 5.5313, 0.3477, -1.3145, 1.7148, 0.3477, -1.3145, 5.5313, 0.3477, -1.3145, 1.7148, 0.25, -1.3145, 1.7148, -0.0977, -3.4355, 1.9629, -0.0977, -3.6836, 1.7148, -0.0977, -3.6836, 5.5313, -0.0977, -3.6836, 1.7148, -0.0977, -3.4355, 1.9629, -0.0977, -3.4355, 5.2813, -0.0977, -3.6836, 5.5313, -0.0977, -3.4355, 1.9629, -0.0977, -1.5635, 5.2813, -0.0977, -3.6836, 5.5313, -0.0977, -3.4355, 5.2813, -0.0977, -3.4355, 1.9629, -0.0977, -1.3145, 1.7148, -0.0977, -1.5635, 1.9629, -0.0977, -1.3145, 5.5313, -0.0977, -1.5635, 1.9629, -0.0977, -1.3145, 1.7148, -0.0977, -1.5635, 5.2813, -0.0977, -1.5635, 1.9629, -0.0977, -1.3145, 5.5313, -0.0977, -3.6836, 5.5313, -0.0977, -1.5635, 5.2813, -0.0977, -1.3145, 5.5313, -0.0977, -1.3145, 5.5313, -0.0977, -1.3145, 5.5313, 0, -3.6836, 5.5313, -0.0977, -3.6836, 5.5313, 0, -3.6836, 5.5313, -0.0977, -1.3145, 5.5313, 0, -1.3145, 5.5313, -0.0977, -1.3145, 1.7148, -0.0977, -1.3145, 5.5313, 0, -1.3145, 1.7148, 0, -1.3145, 5.5313, 0, -1.3145, 1.7148, -0.0977, -1.3145, 1.7148, 0, -1.3145, 1.7148, -0.0977, -3.6836, 1.7148, 0, -3.6836, 1.7148, -0.0977, -3.6836, 1.7148, 0, -1.3145, 1.7148, -0.0977, -3.6836, 1.7148, -0.0977, -3.6836, 5.5313, -0.0977, -3.6836, 1.7148, 0, -3.6836, 5.5313, 0, -3.6836, 1.7148, 0, -3.6836, 5.5313, -0.0977, 0, 0, 0.25, 0, 0, 0, -5, 0, 0.25, -5, 0, 0, -5, 0, 0.25, 0, 0, 0, 0, 6.4453, 0, 0, 6.4453, 0.25, -5, 6.4453, 0, -5, 6.4453, 0.25, -5, 6.4453, 0, 0, 6.4453, 0.25, -3.4355, 5.2813, -0.0977, -3.4355, 1.9629, -0.0977, -3.4355, 5.2813, 0.3477, -3.4355, 1.9629, 0.3477, -3.4355, 5.2813, 0.3477, -3.4355, 1.9629, -0.0977, -1.5635, 5.2813, 0.3477, -1.5635, 5.2813, -0.0977, -3.4355, 5.2813, 0.3477, -3.4355, 5.2813, -0.0977, -3.4355, 5.2813, 0.3477, -1.5635, 5.2813, -0.0977, -1.5635, 1.9629, -0.0977, -1.5635, 1.9629, 0.3477, -3.4355, 1.9629, -0.0977, -3.4355, 1.9629, 0.3477, -3.4355, 1.9629, -0.0977, -1.5635, 1.9629, 0.3477, -1.5635, 1.9629, -0.0977, -1.5635, 5.2813, -0.0977, -1.5635, 1.9629, 0.3477, -1.5635, 5.2813, 0.3477, -1.5635, 1.9629, 0.3477, -1.5635, 5.2813, -0.0977, -5, 0, 0.25, -1.3145, 1.7148, 0.25, 0, 0, 0.25, 0, 6.4453, 0.25, 0, 0, 0.25, -1.3145, 1.7148, 0.25, -1.3145, 5.5313, 0.25, 0, 6.4453, 0.25, -1.3145, 1.7148, 0.25, -3.6836, 5.5313, 0.25, 0, 6.4453, 0.25, -1.3145, 5.5313, 0.25, -1.3145, 1.7148, 0.25, -5, 0, 0.25, -3.6836, 1.7148, 0.25, -5, 6.4453, 0.25, -3.6836, 1.7148, 0.25, -5, 0, 0.25, -3.6836, 5.5313, 0.25, -3.6836, 1.7148, 0.25, -5, 6.4453, 0.25, 0, 6.4453, 0.25, -3.6836, 5.5313, 0.25, -5, 6.4453, 0.25, 0, 0, 0, -3.6836, 1.7148, 0, -5, 0, 0, -5, 6.4453, 0, -5, 0, 0, -3.6836, 1.7148, 0, -3.6836, 5.5313, 0, -5, 6.4453, 0, -3.6836, 1.7148, 0, -1.3145, 5.5313, 0, -5, 6.4453, 0, -3.6836, 5.5313, 0, 0, 6.4453, 0, -1.3145, 1.7148, 0, 0, 0, 0, -3.6836, 1.7148, 0, 0, 0, 0, -1.3145, 1.7148, 0, -1.3145, 5.5313, 0, -1.3145, 1.7148, 0, 0, 6.4453, 0, -5, 6.4453, 0, -1.3145, 5.5313, 0, 0, 6.4453, 0, 0, 6.4453, 0, 0, 0, 0, 0, 6.4453, 0.25, 0, 0, 0.25, 0, 6.4453, 0.25, 0, 0, 0, -5, 0, 0, -5, 6.4453, 0, -5, 0, 0.25, -5, 6.4453, 0.25, -5, 0, 0.25, -5, 6.4453, 0, -3.1895, 2.209, 0.1863, -1.8096, 2.209, 0.1863, -3.1895, 3.377, 0.1863, -1.8096, 3.377, 0.1863, -3.1895, 3.377, 0.1863, -1.8096, 2.209, 0.1863, -3.1895, 3.377, 0.1863, -1.8096, 2.209, 0.1863, -3.1895, 2.209, 0.1863, -1.8096, 2.209, 0.1863, -3.1895, 3.377, 0.1863, -1.8096, 3.377, 0.1863, -3.1895, 3.377, 0.125, -3.1895, 2.209, 0.125, -3.1895, 3.377, 0.1863, -3.1895, 2.209, 0.1863, -3.1895, 3.377, 0.1863, -3.1895, 2.209, 0.125, -3.1895, 3.377, 0.1863, -3.1895, 2.209, 0.1863, -3.1895, 3.377, 0.2477, -3.1895, 2.209, 0.2477, -3.1895, 3.377, 0.2477, -3.1895, 2.209, 0.1863, -1.8096, 3.377, 0.1863, -1.8096, 3.377, 0.125, -3.1895, 3.377, 0.1863, -3.1895, 3.377, 0.125, -3.1895, 3.377, 0.1863, -1.8096, 3.377, 0.125, -3.1895, 3.377, 0.1863, -3.1895, 3.377, 0.2477, -1.8096, 3.377, 0.1863, -1.8096, 3.377, 0.2477, -1.8096, 3.377, 0.1863, -3.1895, 3.377, 0.2477, -1.8096, 2.209, 0.125, -1.8096, 3.377, 0.125, -1.8096, 2.209, 0.1863, -1.8096, 3.377, 0.1863, -1.8096, 2.209, 0.1863, -1.8096, 3.377, 0.125, -1.8096, 2.209, 0.1863, -1.8096, 3.377, 0.1863, -1.8096, 2.209, 0.2477, -1.8096, 3.377, 0.2477, -1.8096, 2.209, 0.2477, -1.8096, 3.377, 0.1863, -1.8096, 2.209, 0.125, -1.8096, 2.209, 0.1863, -3.1895, 2.209, 0.125, -3.1895, 2.209, 0.1863, -3.1895, 2.209, 0.125, -1.8096, 2.209, 0.1863, -1.8096, 2.209, 0.1863, -1.8096, 2.209, 0.2477, -3.1895, 2.209, 0.1863, -3.1895, 2.209, 0.2477, -3.1895, 2.209, 0.1863, -1.8096, 2.209, 0.2477, -3.4355, 1.9629, 0.125, -3.4355, 3.623, 0.125, -3.4355, 1.9629, 0.2477, -3.4355, 3.623, 0.2477, -3.4355, 1.9629, 0.2477, -3.4355, 3.623, 0.125, -1.5635, 3.623, 0.125, -1.5635, 3.623, 0.2477, -3.4355, 3.623, 0.125, -3.4355, 3.623, 0.2477, -3.4355, 3.623, 0.125, -1.5635, 3.623, 0.2477, -3.4355, 1.9629, 0.2477, -1.8096, 2.209, 0.2477, -1.5635, 1.9629, 0.2477, -1.5635, 3.623, 0.2477, -1.5635, 1.9629, 0.2477, -1.8096, 2.209, 0.2477, -1.8096, 3.377, 0.2477, -1.5635, 3.623, 0.2477, -1.8096, 2.209, 0.2477, -3.1895, 3.377, 0.2477, -1.5635, 3.623, 0.2477, -1.8096, 3.377, 0.2477, -1.8096, 2.209, 0.2477, -3.4355, 1.9629, 0.2477, -3.1895, 2.209, 0.2477, -3.4355, 3.623, 0.2477, -3.1895, 2.209, 0.2477, -3.4355, 1.9629, 0.2477, -3.1895, 3.377, 0.2477, -3.1895, 2.209, 0.2477, -3.4355, 3.623, 0.2477, -1.5635, 3.623, 0.2477, -3.1895, 3.377, 0.2477, -3.4355, 3.623, 0.2477, -1.5635, 1.9629, 0.125, -3.1895, 2.209, 0.125, -3.4355, 1.9629, 0.125, -3.4355, 3.623, 0.125, -3.4355, 1.9629, 0.125, -3.1895, 2.209, 0.125, -3.1895, 3.377, 0.125, -3.4355, 3.623, 0.125, -3.1895, 2.209, 0.125, -1.8096, 3.377, 0.125, -3.4355, 3.623, 0.125, -3.1895, 3.377, 0.125, -3.1895, 2.209, 0.125, -1.5635, 1.9629, 0.125, -1.8096, 2.209, 0.125, -1.5635, 3.623, 0.125, -1.8096, 2.209, 0.125, -1.5635, 1.9629, 0.125, -1.8096, 3.377, 0.125, -1.8096, 2.209, 0.125, -1.5635, 3.623, 0.125, -3.4355, 3.623, 0.125, -1.8096, 3.377, 0.125, -1.5635, 3.623, 0.125, -1.5635, 1.9629, 0.2477, -1.5635, 1.9629, 0.125, -3.4355, 1.9629, 0.2477, -3.4355, 1.9629, 0.125, -3.4355, 1.9629, 0.2477, -1.5635, 1.9629, 0.125, -1.5635, 3.623, 0.125, -1.5635, 1.9629, 0.125, -1.5635, 3.623, 0.2477, -1.5635, 1.9629, 0.2477, -1.5635, 3.623, 0.2477, -1.5635, 1.9629, 0.125, -3.1895, 3.8691, 0.0636, -1.8096, 3.8691, 0.0636, -3.1895, 5.0352, 0.0636, -1.8096, 5.0352, 0.0636, -3.1895, 5.0352, 0.0636, -1.8096, 3.8691, 0.0636, -3.1895, 5.0352, 0.0636, -1.8096, 3.8691, 0.0636, -3.1895, 3.8691, 0.0636, -1.8096, 3.8691, 0.0636, -3.1895, 5.0352, 0.0636, -1.8096, 5.0352, 0.0636, -3.1895, 5.0352, 0.0022, -3.1895, 3.8691, 0.0022, -3.1895, 5.0352, 0.0636, -3.1895, 3.8691, 0.0636, -3.1895, 5.0352, 0.0636, -3.1895, 3.8691, 0.0022, -3.1895, 5.0352, 0.0636, -3.1895, 3.8691, 0.0636, -3.1895, 5.0352, 0.125, -3.1895, 3.8691, 0.125, -3.1895, 5.0352, 0.125, -3.1895, 3.8691, 0.0636, -1.8096, 5.0352, 0.0636, -1.8096, 5.0352, 0.0022, -3.1895, 5.0352, 0.0636, -3.1895, 5.0352, 0.0022, -3.1895, 5.0352, 0.0636, -1.8096, 5.0352, 0.0022, -3.1895, 5.0352, 0.0636, -3.1895, 5.0352, 0.125, -1.8096, 5.0352, 0.0636, -1.8096, 5.0352, 0.125, -1.8096, 5.0352, 0.0636, -3.1895, 5.0352, 0.125, -1.8096, 3.8691, 0.0022, -1.8096, 5.0352, 0.0022, -1.8096, 3.8691, 0.0636, -1.8096, 5.0352, 0.0636, -1.8096, 3.8691, 0.0636, -1.8096, 5.0352, 0.0022, -1.8096, 3.8691, 0.0636, -1.8096, 5.0352, 0.0636, -1.8096, 3.8691, 0.125, -1.8096, 5.0352, 0.125, -1.8096, 3.8691, 0.125, -1.8096, 5.0352, 0.0636, -1.8096, 3.8691, 0.0022, -1.8096, 3.8691, 0.0636, -3.1895, 3.8691, 0.0022, -3.1895, 3.8691, 0.0636, -3.1895, 3.8691, 0.0022, -1.8096, 3.8691, 0.0636, -1.8096, 3.8691, 0.0636, -1.8096, 3.8691, 0.125, -3.1895, 3.8691, 0.0636, -3.1895, 3.8691, 0.125, -3.1895, 3.8691, 0.0636, -1.8096, 3.8691, 0.125, -3.4355, 3.623, 0.0022, -3.4355, 5.2813, 0.0022, -3.4355, 3.623, 0.125, -3.4355, 5.2813, 0.125, -3.4355, 3.623, 0.125, -3.4355, 5.2813, 0.0022, -1.5635, 5.2813, 0.0022, -1.5635, 5.2813, 0.125, -3.4355, 5.2813, 0.0022, -3.4355, 5.2813, 0.125, -3.4355, 5.2813, 0.0022, -1.5635, 5.2813, 0.125, -3.4355, 3.623, 0.125, -1.8096, 3.8691, 0.125, -1.5635, 3.623, 0.125, -1.5635, 5.2813, 0.125, -1.5635, 3.623, 0.125, -1.8096, 3.8691, 0.125, -1.8096, 5.0352, 0.125, -1.5635, 5.2813, 0.125, -1.8096, 3.8691, 0.125, -3.1895, 5.0352, 0.125, -1.5635, 5.2813, 0.125, -1.8096, 5.0352, 0.125, -1.8096, 3.8691, 0.125, -3.4355, 3.623, 0.125, -3.1895, 3.8691, 0.125, -3.4355, 5.2813, 0.125, -3.1895, 3.8691, 0.125, -3.4355, 3.623, 0.125, -3.1895, 5.0352, 0.125, -3.1895, 3.8691, 0.125, -3.4355, 5.2813, 0.125, -1.5635, 5.2813, 0.125, -3.1895, 5.0352, 0.125, -3.4355, 5.2813, 0.125, -1.5635, 3.623, 0.0022, -3.1895, 3.8691, 0.0022, -3.4355, 3.623, 0.0022, -3.4355, 5.2813, 0.0022, -3.4355, 3.623, 0.0022, -3.1895, 3.8691, 0.0022, -3.1895, 5.0352, 0.0022, -3.4355, 5.2813, 0.0022, -3.1895, 3.8691, 0.0022, -1.8096, 5.0352, 0.0022, -3.4355, 5.2813, 0.0022, -3.1895, 5.0352, 0.0022, -3.1895, 3.8691, 0.0022, -1.5635, 3.623, 0.0022, -1.8096, 3.8691, 0.0022, -1.5635, 5.2813, 0.0022, -1.8096, 3.8691, 0.0022, -1.5635, 3.623, 0.0022, -1.8096, 5.0352, 0.0022, -1.8096, 3.8691, 0.0022, -1.5635, 5.2813, 0.0022, -3.4355, 5.2813, 0.0022, -1.8096, 5.0352, 0.0022, -1.5635, 5.2813, 0.0022, -1.5635, 3.623, 0.125, -1.5635, 3.623, 0.0022, -3.4355, 3.623, 0.125, -3.4355, 3.623, 0.0022, -3.4355, 3.623, 0.125, -1.5635, 3.623, 0.0022, -1.5635, 5.2813, 0.0022, -1.5635, 3.623, 0.0022, -1.5635, 5.2813, 0.125, -1.5635, 3.623, 0.125, -1.5635, 5.2813, 0.125, -1.5635, 3.623, 0.0022 )

[node name="WindowSlide" type="MeshInstance"]
transform = Transform( 0.5, 0, 0, 0, 0.5, 0, 0, 0, 0.5, 1.25, 0, 0 )
mesh = ExtResource( 1 )
material/0 = null
material/1 = null
material/2 = null
material/3 = null
material/4 = null
material/5 = null
material/6 = null

[node name="StaticBody" type="StaticBody" parent="."]
collision_mask = 30

[node name="CollisionShape" type="CollisionShape" parent="StaticBody"]
shape = SubResource( 1 )
